Statistics for Linguists
…
---

# Exploring the posterior

.pull-left[

```r
cp <- as_tibble(cars_bayes_int)
```

```
## # A tibble: 4,000 × 1
##    b_Intercept
##          <dbl>
##  1        21.9
##  2        21.5
##  3        19.1
##  4        20.5
##  5        19.7
##  6        20.8
##  7        19.5
##  8        20.0
##  9        20.4
## 10        19.9
## # … with 3,990 more rows
```
…
